{
	"info": {
		"_postman_id": "da1eb783-7808-4b29-9379-4c974c5b43a6",
		"name": "splentiful",
		"schema": "https://schema.getpostman.com/json/collection/v2.1.0/collection.json"
	},
	"item": [
		{
			"name": "Authentication",
			"item": [
				{
					"name": "Login",
					"request": {
						"method": "POST",
						"header": [
							{
								"key": "Content-Type",
								"value": "application/json"
							},
							{
								"key": "Authorization",
								"value": "Bearer {{token}}",
								"disabled": true
							}
						],
						"body": {
							"mode": "raw",
							"raw": "{\n    \"email\": \"tester@splentiful.com\",\n    \"password\": \"secret\"\n}"
						},
						"url": {
							"raw": "{{scheme}}://{{host}}:{{port}}/api/v1/login",
							"protocol": "{{scheme}}",
							"host": [
								"{{host}}"
							],
							"port": "{{port}}",
							"path": [
								"api",
								"v1",
								"login"
							]
						}
					},
					"response": []
				},
				{
					"name": "Register",
					"request": {
						"method": "POST",
						"header": [
							{
								"key": "Content-Type",
								"value": "application/json"
							},
							{
								"key": "Authorization",
								"value": "Bearer {{token}}",
								"disabled": true
							}
						],
						"body": {
							"mode": "raw",
							"raw": "{\n    \"email\": \"tester@splentiful.com\",\n    \"password\": \"secret\",\n    \"password_confirmation\": \"secret\"\n}\n"
						},
						"url": {
							"raw": "{{scheme}}://{{host}}:{{port}}/api/v1/register",
							"protocol": "{{scheme}}",
							"host": [
								"{{host}}"
							],
							"port": "{{port}}",
							"path": [
								"api",
								"v1",
								"register"
							]
						}
					},
					"response": []
				}
			]
		},
		{
			"name": "Misc",
			"item": [
				{
					"name": "Secured",
					"request": {
						"method": "GET",
						"header": [
							{
								"key": "Content-Type",
								"value": "application/json"
							},
							{
								"key": "Authorization",
								"value": "Bearer {{token}}"
							}
						],
						"body": {},
						"url": {
							"raw": "{{scheme}}://{{host}}:{{port}}/api/v1/secured",
							"protocol": "{{scheme}}",
							"host": [
								"{{host}}"
							],
							"port": "{{port}}",
							"path": [
								"api",
								"v1",
								"secured"
							]
						}
					},
					"response": []
				}
			]
		},
		{
			"name": "Users",
			"item": [
				{
					"name": "Create",
					"request": {
						"method": "POST",
						"header": [
							{
								"key": "Content-Type",
								"value": "application/json"
							},
							{
								"key": "Authorization",
								"value": "Bearer {{token}}"
							}
						],
						"body": {
							"mode": "raw",
							"raw": "{\n\t\"email\": \"johndoe@example.com\",\n\t\"password\": \"secret\"\n}"
						},
						"url": {
							"raw": "{{scheme}}://{{host}}:{{port}}/api/v1/users",
							"protocol": "{{scheme}}",
							"host": [
								"{{host}}"
							],
							"port": "{{port}}",
							"path": [
								"api",
								"v1",
								"users"
							]
						}
					},
					"response": []
				},
				{
					"name": "Update",
					"request": {
						"method": "PUT",
						"header": [
							{
								"key": "Content-Type",
								"value": "application/json"
							},
							{
								"key": "Authorization",
								"value": "Bearer {{token}}"
							}
						],
						"body": {
							"mode": "raw",
							"raw": "{\n\t\"email\": \"foobar@example.com\",\n\t\"password\": \"secret\"\n}"
						},
						"url": {
							"raw": "{{scheme}}://{{host}}:{{port}}/api/v1/users/0b589595-8e4e-404a-950c-ee4021161160",
							"protocol": "{{scheme}}",
							"host": [
								"{{host}}"
							],
							"port": "{{port}}",
							"path": [
								"api",
								"v1",
								"users",
								"0b589595-8e4e-404a-950c-ee4021161160"
							]
						}
					},
					"response": []
				},
				{
					"name": "Destroy",
					"request": {
						"method": "DELETE",
						"header": [
							{
								"key": "Content-Type",
								"value": "application/json"
							},
							{
								"key": "Authorization",
								"value": "Bearer {{token}}"
							}
						],
						"body": {},
						"url": {
							"raw": "{{scheme}}://{{host}}:{{port}}/api/v1/users/0b589595-8e4e-404a-950c-ee4021161160",
							"protocol": "{{scheme}}",
							"host": [
								"{{host}}"
							],
							"port": "{{port}}",
							"path": [
								"api",
								"v1",
								"users",
								"0b589595-8e4e-404a-950c-ee4021161160"
							]
						}
					},
					"response": []
				},
				{
					"name": "Show",
					"request": {
						"method": "GET",
						"header": [
							{
								"key": "Content-Type",
								"value": "application/json"
							},
							{
								"key": "Authorization",
								"value": "Bearer {{token}}"
							}
						],
						"body": {},
						"url": {
							"raw": "{{scheme}}://{{host}}:{{port}}/api/v1/users/d094c300-bef7-4857-8126-2bb44bfaa933",
							"protocol": "{{scheme}}",
							"host": [
								"{{host}}"
							],
							"port": "{{port}}",
							"path": [
								"api",
								"v1",
								"users",
								"d094c300-bef7-4857-8126-2bb44bfaa933"
							]
						}
					},
					"response": []
				},
				{
					"name": "List",
					"request": {
						"method": "GET",
						"header": [
							{
								"key": "Content-Type",
								"value": "application/json"
							},
							{
								"key": "Authorization",
								"value": "Bearer {{token}}"
							}
						],
						"body": {},
						"url": {
							"raw": "{{scheme}}://{{host}}:{{port}}/api/v1/users",
							"protocol": "{{scheme}}",
							"host": [
								"{{host}}"
							],
							"port": "{{port}}",
							"path": [
								"api",
								"v1",
								"users"
							]
						}
					},
					"response": []
				}
			]
		}
	],
	"event": [
		{
			"listen": "prerequest",
			"script": {
				"id": "942f1ce0-f571-4a8e-8e62-287ef4a644cf",
				"type": "text/javascript",
				"exec": [
					""
				]
			}
		},
		{
			"listen": "test",
			"script": {
				"id": "a7116567-1b5a-416d-b353-4083abb8d8ab",
				"type": "text/javascript",
				"exec": [
					""
				]
			}
		}
	],
	"variable": [
		{
			"id": "5e2e1e08-aec9-4f9b-bbac-d717b69022ce",
			"key": "scheme",
			"value": "http",
			"type": "string"
		},
		{
			"id": "72a17e9a-3e58-47c1-aec2-3c5a92e46d4d",
			"key": "host",
			"value": "127.0.0.1",
			"type": "string"
		},
		{
			"id": "bed1239b-85da-4937-991f-223763e7c7bb",
			"key": "port",
			"value": "3000",
			"type": "string"
		},
		{
			"id": "c7b56a1b-4341-40a5-a38e-eefe49f1fd6e",
			"key": "token",
			"value": "eyJhbGciOiJSUzI1NiIsInR5cCI6IkpXVCJ9.eyJleHAiOjE1MzQ1ODkwNTcsInVzZXJfaWQiOiJkMDk0YzMwMC1iZWY3LTQ4NTctODEyNi0yYmI0NGJmYWE5MzMifQ.GJ4HDwIymJHm-q57NQvQw4_4YjxC0XqJ4vRQbYRTYrTKjExmHy2uHlUDgJdYMf8tG-8CnWgbrDG5IYgF3U4Y3s309PEndie6RmShWLOmH1VBzfQkbcoWmBdVQ0VQcA_aXu0rCZoTShWjPYUzT80AH9Zlz1XsuGW1ypG-XVz85vWnNnqiEZQ3giZGLVP-PVDqqIZJAdCDxpWZerI4rknsEZEvo-_WDMu8BPJIQj6YIuQGQDrdaQ4UicenANnlFQh_vtunrHvgO740BRgu-X_JifcaLLsxIAYvbU_6F9VZS0ds-5xSopDk60CfaLu8CFa-B8jrN4YlCM80AUGoOYfF2A",
			"type": "string"
		}
	]
}